…
### Now, Let's explore the data
We will check the different type of volcanic eruptions that are given in the dataset. We see that there are 26 types of eruptions listed here.
``` r
volcano_raw %>% 
    count(primary_volcano_type, sort = T)
```

    ## # A tibble: 26 x 2
    ##    primary_volcano_type     n
    ##    <chr>                <int>
    ##  1 Stratovolcano          353
    ##  2 Stratovolcano(es)      107
    ##  3 Shield                  85
    ##  4 Volcanic field          71
    ##  5 Pyroclastic cone(s)     70
    ##  6 Caldera                 65
    ##  7 Complex                 46
    ##  8 Shield(s)               33
    ##  9 Submarine               27
    ## 10 Lava dome(s)            26
    ## # ... with 16 more rows
…
It looks like these volcanos create a ring of fire around the pacific ocean. Also, they are spreaded all over the world but we can see most of them in coastal areas.

### Let's prepare the data
Rather than creating a split we will create bootstrap resamples as we don’t have much data. Hence resampling will help in preventing the model from overfitting and will also give us a robust fit. 

``` r
volcano_boot <- volcano_df %>% 
    bootstraps()
volcano_boot
```

    ## # Bootstrap sampling 
    ## # A tibble: 25 x 2
    ##    splits            id         
    ##    <list>            <chr>      
    ##  1 <split [958/353]> Bootstrap01
    ##  2 <split [958/357]> Bootstrap02
    ##  3 <split [958/340]> Bootstrap03
    ##  4 <split [958/358]> Bootstrap04
    ##  5 <split [958/363]> Bootstrap05
    ##  6 <split [958/361]> Bootstrap06
    ##  7 <split [958/336]> Bootstrap07
    ##  8 <split [958/353]> Bootstrap08
    ##  9 <split [958/353]> Bootstrap09
    ## 10 <split [958/368]> Bootstrap10
    ## # ... with 15 more rows
…
    ## # A tibble: 1 x 3
    ##   .metric .estimator .estimate
    ##   <chr>   <chr>          <dbl>
    ## 1 ppv     macro          0.616

We can check the ppv across various bootstraps to see how it behaves in different data samples. It doesn't change much, which indicates that model is not too sensitive to the new data.
``` r
volcano_res %>% 
    collect_predictions() %>% 
    group_by(id) %>% 
    ppv(volcano_type, .pred_class)
```

    ## # A tibble: 25 x 4
    ##    id          .metric .estimator .estimate
    ##    <chr>       <chr>   <chr>          <dbl>
    ##  1 Bootstrap01 ppv     macro          0.610
    ##  2 Bootstrap02 ppv     macro          0.622
    ##  3 Bootstrap03 ppv     macro          0.621
    ##  4 Bootstrap04 ppv     macro          0.638
    ##  5 Bootstrap05 ppv     macro          0.616
    ##  6 Bootstrap06 ppv     macro          0.641
    ##  7 Bootstrap07 ppv     macro          0.578
    ##  8 Bootstrap08 ppv     macro          0.671
    ##  9 Bootstrap09 ppv     macro          0.672
    ## 10 Bootstrap10 ppv     macro          0.616
    ## # ... with 15 more rows
…
