…
When we prep the recipe, it performs all the step transformations specified in our recipe. If we want to see the details we can use tidy() function to get a tabular summary.

``` r
tidied_pca <- tidy(pca_prep, 2)
tidied_pca
```

    ## # A tibble: 1,600 x 4
    ##    terms          value component id       
    ##    <chr>          <dbl> <chr>     <chr>    
    ##  1 lemon_juice   0.0167 PC1       pca_I3IqE
    ##  2 lime_juice   -0.224  PC1       pca_I3IqE
    ##  3 gin           0.260  PC1       pca_I3IqE
    ##  4 bitters      -0.0210 PC1       pca_I3IqE
    ##  5 orange_juice -0.0405 PC1       pca_I3IqE
    ##  6 simple_syrup -0.312  PC1       pca_I3IqE
    ##  7 vodka        -0.200  PC1       pca_I3IqE
    ##  8 light_rum    -0.163  PC1       pca_I3IqE
    ##  9 triple_sec   -0.0137 PC1       pca_I3IqE
    ## 10 dry_vermouth  0.0874 PC1       pca_I3IqE
    ## # ... with 1,590 more rows
…
